{
  "titles": [
    [
      "Academia"
    ],
    [
      "Health"
    ],
    [
      "Security"
    ],
    [
      "KNUST Counselling"
    ],
    [
      "The Dean of students"
    ]
  ],
  "contents": [
    [
      "For registration, students must undertake to do a biometric registration. Students are reminded that registration with penalty continues for three (3) additional days. When the process is not completed within this period, you SHALL be precluded for the academic year. Students who wish to change the programmes of study after the first year shall apply to the Deputy Registrar (Academic) for the requisite application form. A student could interrupt his/her programme for WHATEVER REASON for a maximum period of one academic year ONLY. There cannot be deferment of programme for one semester under any circumstance. The End-of-Semester examination shall be weighted 70% and the continuous assessment 30% of the total marks for the course. The pass mark for any course shall be 40 %. However, a Cumulative Weighted Average (CWA) of 45.00 shall be required at the end of each year  to be in good academic standing.  In order to graduate, a student is required to have completed the prescribed number of credit hours in each category of course modules specified for his/her programme of study and achieved the minimum CWA of 45. A student trails a course when he/she is unable to obtain a pass mark, is graded Incomplete or has Deferred. A Deferred (Df) course is an unregistered course which is neither Fail (F) nor Incomplete (I). A first, second or third year student on obtaining a CWA of 40.00 to 44.99 at the end of the Supplementary Examinations shall be considered to be on probation. A student shall be required to repeat the year in any of the following situation 2nd and 3rd year students on obtaining CWAs of less than 40.00. A student shall be withdrawn from a programme in any of the following situation A 1st, 2nd or 3rd year student who trails (F) more than TWO (2) courses at the end of the Supplementary Examinations."
    ],
    [
      "The University Hospital  is located in the north-eastern part of KNUST campus, along the Kumasi-Accra Highway.  The hospital has 100 beds and cots, an Out-Patient Department (OPD), four Wards, Operation Theatre, Laboratory, X-Ray, Maternity, Maternal and Child Health units, Dispensary, Medical Records Unit, a Dental Clinic and an Eye Clinic. The services provided include Out-Patient Services, In-Patient Services, Maternal Care, Radiography, Ultra Sound, Surgery, Laboratory, Dental Care and Ambulance Services.  Medical attention is given free of charge to students, members of staff and their registered dependants. The Visiting hours for in-patients are: Morning: 6:00am – 7.30am Afternoon: 12.00 pm-1.00 pm Evening: 6.00 pm – 7.00 pm"
    ],
    [
      "The Security Department personnel patrol the campus to identify and report dangers to persons and property. The office of the department is opened seven (7) days a week, 24 hours a day, 365 days a year with officers stationed in the main Charge Office next door to the University Hospital. There is also a Security Control Office near the Owusu Ansah Block and the Evans Anfom Auditorium. . Students are encouraged to report all crimes – actual, attempted, or suspected – as well as any other emergencies to this hotline 03220 62999.  The security personnel respond to concerns and complaints dealing with illegal, disruptive, or dangerous behaviours"
    ],
    [
      "The KNUST Counselling Centre (KCC) is a mental health facility dedicated to the promotion of a healthy university environment for students, staff and their dependents. The KNUST Counselling Centre operates mainly from its offices located in the Harper Building near the Commercial area. Bamfo Kwakye Building, Old Finance Office. The counsellor's office of the college of Engineering and the college of Health Sciences is Bamfo Kwakye Building, Old Finance Office. The counsellor's office of the college of Humanities and Social Sciences is School of Business (Third Floor, Room 4). The counsellor's office of the college of Agriculture and Natural Resources is Agra Building Last Floor. The counsellor's office of the college of Science is College of Science (Third Floor, Room 35). The counsellor's office of the college of Arts and Built Environment is Faculty of Arts (First Floor, Room 4). The KNUST Counselling Centre contact information are  (+233) 0208 244 000, (+233) 0502297406 and counsellingcentre@knust.edu.gh. Their working hours: Monday to Friday – 8:00am to 5:00pm."
    ],
    [
      "The Dean of Students shall be responsible for the welfare and discipline of all students and shall also give meaning to the role of Senior Members by acting in loco parentis for students. The office of the Dean of Students is the first point of call for all issues on students’ welfare, conduct and discipline. For direct academic issues, students are advised to first report to their Heads of Departments, Deans and Provost; in that sequential order. Our mission is fulfilled through assisting students in understanding policies and procedures of the university, providing opportunities for involvement in decision making, developing and enhancing leadership qualities and, through advocacy for students, resolving conflicts. The principal fucus of the dean of students are:  International Student Affairs, Student Housing & Residence Life, Student Conduct & Discipline, Student Support Services and Student Health Services."
    ]
  ],
  "questions": [
    [
      "How to change my programme of study?",
      "How long can I interrupt my programme?",
      "What is my pass mark?"
    ],
    [
      "Where is the University Hospital located?",
      "What are the opening hours?",
      "What are the services provided?"
    ],
    [
      "Emergency number to call?",
      "Where is the security control office?",
      "what is the role of the security personnel?"
    ],
    [
      "What is the KNUST Counselling Centre?",
      "Where is the office of the college of Engineering?",
      "How to contact the KNUST Counselling Centre?"
    ],
    [
      "What is the responsibility of the Dean of students?",
      "What is the mission of the dean of students?",
      "What are the focus of the dean of students?"
    ]
  ]
}